…
# identify the species of interest
spp_of_interest <- c("Mora moro", "Helicolenus dactylopterus")

# DOWNLOAD AND SAVE DATA INTO A LIST
lspp <- list()

for(spp in spp_of_interest){
  lspp[[spp]] <- robis::occurrence(spp) # save results into a named list
}

print(lspp)
## $`Mora moro`
## # A tibble: 10,272 × 134
##    basisOfRecord    bibliographicCitation   catalogNumber class coordinateUncer…
##    <chr>            <chr>                   <chr>         <chr> <chr>           
##  1 HumanObservation Mora moro (MBIS resear… Trawl buc840… Tele… 30              
##  2 HumanObservation Mora moro (MBIS resear… Trawl cor880… Tele… 30              
##  3 HumanObservation Mora moro (MBIS resear… Trawl buc850… Tele… 30              
##  4 HumanObservation <NA>                    <NA>          Tele… 500             
##  5 HumanObservation Mora moro (MBIS resear… Trawl aex880… Tele… 30              
##  6 HumanObservation <NA>                    Trawl thh110… Tele… 30              
##  7 HumanObservation Mora moro (MBIS resear… Trawl cor880… Tele… 30              
##  8 HumanObservation Mora moro (MBIS resear… Trawl cor880… Tele… 30              
##  9 HumanObservation Mora moro (MBIS resear… Trawl aex900… Tele… 30              
## 10 HumanObservation Mora moro (MBIS resear… Trawl jco891… Tele… 30              
## # … with 10,262 more rows, and 129 more variables: datasetName <chr>,
## #   day <chr>, decimalLatitude <dbl>, decimalLongitude <dbl>,
## #   dynamicProperties <chr>, eventDate <chr>, family <chr>, fieldNumber <chr>,
## #   footprintWKT <chr>, genus <chr>, geodeticDatum <chr>,
## #   institutionCode <chr>, kingdom <chr>, language <chr>,
## #   maximumDepthInMeters <dbl>, minimumDepthInMeters <dbl>, modified <chr>,
## #   month <chr>, occurrenceID <chr>, occurrenceRemarks <chr>, …
## 
## $`Helicolenus dactylopterus`
## # A tibble: 36,257 × 154
##    basisOfRecord    bibliographicCitation     catalogNumber class collectionCode
##    <chr>            <chr>                     <chr>         <chr> <chr>         
##  1 Occurrence       Scottish West Coast Surv… 1879036       Tele… DATRAS-ALT-IB…
##  2 HumanObservation <NA>                      MCM-DEM-1324… Tele… DEM           
##  3 HumanObservation <NA>                      <NA>          Acti… <NA>          
##  4 HumanObservation <NA>                      MCM-DEM-0078… Tele… DEM           
##  5 HumanObservation <NA>                      1.9940201290… Acti… SPRING NMFS N…
##  6 Occurrence       Scottish Rockall Survey   1846689       Tele… DATRAS-ROCKALL
##  7 HumanObservation <NA>                      <NA>          Acti… <NA>          
##  8 HumanObservation <NA>                      MCM-DEM-1924… Tele… DEM           
##  9 HumanObservation <NA>                      <NA>          Acti… <NA>          
## 10 HumanObservation <NA>                      <NA>          Acti… <NA>          
## # … with 36,247 more rows, and 149 more variables:
## #   coordinateUncertaintyInMeters <chr>, country <chr>, datasetID <chr>,
## #   day <chr>, decimalLatitude <dbl>, decimalLongitude <dbl>,
## #   dynamicProperties <chr>, eventDate <chr>, eventTime <chr>, family <chr>,
## #   genus <chr>, individualCount <chr>, institutionCode <chr>, kingdom <chr>,
## #   maximumDepthInMeters <dbl>, modified <chr>, month <chr>,
## #   occurrenceID <chr>, occurrenceRemarks <chr>, occurrenceStatus <chr>, …
```
…
